%YAML 1.1
%TAG !u! tag:unity3d.com,2011:
--- !u!114 &11400000
MonoBehaviour:
  m_ObjectHideFlags: 0
  m_CorrespondingSourceObject: {fileID: 0}
  m_PrefabInstance: {fileID: 0}
  m_PrefabAsset: {fileID: 0}
  m_GameObject: {fileID: 0}
  m_Enabled: 1
  m_EditorHideFlags: 0
  m_Script: {fileID: 11500000, guid: 44e7468f96d8400b878e8efda66c2c64, type: 3}
  m_Name: ItemCarrot
  m_EditorClassIdentifier: 
  img: {fileID: 21300000, guid: 5acbc5f4df87e224491d5911ddba1314, type: 3}
  name: Carrot
  price: 14
