%YAML 1.1
%TAG !u! tag:unity3d.com,2011:
--- !u!114 &11400000
MonoBehaviour:
  m_ObjectHideFlags: 0
  m_CorrespondingSourceObject: {fileID: 0}
  m_PrefabInstance: {fileID: 0}
  m_PrefabAsset: {fileID: 0}
  m_GameObject: {fileID: 0}
  m_Enabled: 1
  m_EditorHideFlags: 0
  m_Script: {fileID: 11500000, guid: b86a49d727f440f7b82f8b8986360476, type: 3}
  m_Name: Character
  m_EditorClassIdentifier: 
  damage: 10
  defense: 10
  maxHealth: 100
  cautiousness: 10
  strengthPerLevel: 2
  dexterityPerLevel: 2
  intelligencePerLevel: 2
  endurancePerLevel: 2
  stats:
    stats:
      _stats:
      - Type: 3
        Value: 2
      - Type: 0
        Value: 10
      - Type: 1
        Value: 2
      - Type: 2
        Value: 2
