%YAML 1.1
%TAG !u! tag:unity3d.com,2011:
--- !u!21 &2100000
Material:
  serializedVersion: 6
  m_ObjectHideFlags: 0
  m_CorrespondingSourceObject: {fileID: 0}
  m_PrefabInstance: {fileID: 0}
  m_PrefabAsset: {fileID: 0}
  m_Name: ForceField
  m_Shader: {fileID: -6465566751694194690, guid: 77b550ae9449a41f09e5722e2e68b1d7, type: 3}
  m_ShaderKeywords: 
  m_LightmapFlags: 4
  m_EnableInstancingVariants: 0
  m_DoubleSidedGI: 0
  m_CustomRenderQueue: -1
  stringTagMap: {}
  disabledShaderPasses: []
  m_SavedProperties:
    serializedVersion: 3
    m_TexEnvs:
    - Texture2D_914aa43062e7425aa0b9d5fde6cc1055:
        m_Texture: {fileID: 2800000, guid: 5478fddf24e1a4b878009df1cad5d814, type: 3}
        m_Scale: {x: 1, y: 1}
        m_Offset: {x: 0, y: 0}
    - unity_Lightmaps:
        m_Texture: {fileID: 0}
        m_Scale: {x: 1, y: 1}
        m_Offset: {x: 0, y: 0}
    - unity_LightmapsInd:
        m_Texture: {fileID: 0}
        m_Scale: {x: 1, y: 1}
        m_Offset: {x: 0, y: 0}
    - unity_ShadowMasks:
        m_Texture: {fileID: 0}
        m_Scale: {x: 1, y: 1}
        m_Offset: {x: 0, y: 0}
    m_Floats:
    - Vector1_3d9ab137e3994c06b64fadeff7b0e72f: 0.3
    - Vector1_6f6f0f4d61b849f8864a4f8fab293f93: 5
    - Vector1_a115dc5e26da4febb2273347ba8ab824: 1
    - Vector1_eee6eb8a422542808621003ed45cc05c: 0.005
    m_Colors:
    - Color_303856d6c4d74bbc9e4f8dfc4d18ff81: {r: 1.8634343, g: 16.94838, b: 1.9521693, a: 0}
  m_BuildTextureStacks: []
