%YAML 1.1
%TAG !u! tag:unity3d.com,2011:
--- !u!29 &1
OcclusionCullingSettings:
  m_ObjectHideFlags: 0
  serializedVersion: 2
  m_OcclusionBakeSettings:
    smallestOccluder: 5
    smallestHole: 0.25
    backfaceThreshold: 100
  m_SceneGUID: 00000000000000000000000000000000
  m_OcclusionCullingData: {fileID: 0}
--- !u!104 &2
RenderSettings:
  m_ObjectHideFlags: 0
  serializedVersion: 9
  m_Fog: 0
  m_FogColor: {r: 0.5, g: 0.5, b: 0.5, a: 1}
  m_FogMode: 3
  m_FogDensity: 0.01
  m_LinearFogStart: 0
  m_LinearFogEnd: 300
  m_AmbientSkyColor: {r: 0.212, g: 0.227, b: 0.259, a: 1}
  m_AmbientEquatorColor: {r: 0.114, g: 0.125, b: 0.133, a: 1}
  m_AmbientGroundColor: {r: 0.047, g: 0.043, b: 0.035, a: 1}
  m_AmbientIntensity: 1
  m_AmbientMode: 0
  m_SubtractiveShadowColor: {r: 0.42, g: 0.478, b: 0.627, a: 1}
  m_SkyboxMaterial: {fileID: 10304, guid: 0000000000000000f000000000000000, type: 0}
  m_HaloStrength: 0.5
  m_FlareStrength: 1
  m_FlareFadeSpeed: 3
  m_HaloTexture: {fileID: 0}
  m_SpotCookie: {fileID: 10001, guid: 0000000000000000e000000000000000, type: 0}
  m_DefaultReflectionMode: 0
  m_DefaultReflectionResolution: 128
  m_ReflectionBounces: 1
  m_ReflectionIntensity: 1
  m_CustomReflection: {fileID: 0}
  m_Sun: {fileID: 0}
  m_IndirectSpecularColor: {r: 0.18028305, g: 0.22571313, b: 0.3069213, a: 1}
  m_UseRadianceAmbientProbe: 0
--- !u!157 &3
LightmapSettings:
  m_ObjectHideFlags: 0
  serializedVersion: 12
  m_GIWorkflowMode: 1
  m_GISettings:
    serializedVersion: 2
    m_BounceScale: 1
    m_IndirectOutputScale: 1
    m_AlbedoBoost: 1
    m_EnvironmentLightingMode: 0
    m_EnableBakedLightmaps: 1
    m_EnableRealtimeLightmaps: 0
  m_LightmapEditorSettings:
    serializedVersion: 12
    m_Resolution: 2
    m_BakeResolution: 40
    m_AtlasSize: 1024
    m_AO: 0
    m_AOMaxDistance: 1
    m_CompAOExponent: 1
    m_CompAOExponentDirect: 0
    m_ExtractAmbientOcclusion: 0
    m_Padding: 2
    m_LightmapParameters: {fileID: 0}
    m_LightmapsBakeMode: 1
    m_TextureCompression: 1
    m_FinalGather: 0
    m_FinalGatherFiltering: 1
    m_FinalGatherRayCount: 256
    m_ReflectionCompression: 2
    m_MixedBakeMode: 2
    m_BakeBackend: 1
    m_PVRSampling: 1
    m_PVRDirectSampleCount: 32
    m_PVRSampleCount: 512
    m_PVRBounces: 2
    m_PVREnvironmentSampleCount: 256
    m_PVREnvironmentReferencePointCount: 2048
    m_PVRFilteringMode: 1
    m_PVRDenoiserTypeDirect: 1
    m_PVRDenoiserTypeIndirect: 1
    m_PVRDenoiserTypeAO: 1
    m_PVRFilterTypeDirect: 0
    m_PVRFilterTypeIndirect: 0
    m_PVRFilterTypeAO: 0
    m_PVREnvironmentMIS: 1
    m_PVRCulling: 1
    m_PVRFilteringGaussRadiusDirect: 1
    m_PVRFilteringGaussRadiusIndirect: 5
    m_PVRFilteringGaussRadiusAO: 2
    m_PVRFilteringAtrousPositionSigmaDirect: 0.5
    m_PVRFilteringAtrousPositionSigmaIndirect: 2
    m_PVRFilteringAtrousPositionSigmaAO: 1
    m_ExportTrainingData: 0
    m_TrainingDataDestination: TrainingData
    m_LightProbeSampleCountMultiplier: 4
  m_LightingDataAsset: {fileID: 0}
  m_LightingSettings: {fileID: 0}
--- !u!196 &4
NavMeshSettings:
  serializedVersion: 2
  m_ObjectHideFlags: 0
  m_BuildSettings:
    serializedVersion: 2
    agentTypeID: 0
    agentRadius: 0.5
    agentHeight: 2
    agentSlope: 45
    agentClimb: 0.4
    ledgeDropHeight: 0
    maxJumpAcrossDistance: 0
    minRegionArea: 2
    manualCellSize: 0
    cellSize: 0.16666667
    manualTileSize: 0
    tileSize: 256
    accuratePlacement: 0
    maxJobWorkers: 0
    preserveTilesOutsideBounds: 0
    debug:
      m_Flags: 0
  m_NavMeshData: {fileID: 0}
--- !u!1001 &55624134
PrefabInstance:
  m_ObjectHideFlags: 0
  serializedVersion: 2
  m_Modification:
    m_TransformParent: {fileID: 412614268}
    m_Modifications:
    - target: {fileID: 6116960192982459333, guid: de1b3cd7d71e54f068806ddf313e5262, type: 3}
      propertyPath: m_RootOrder
      value: 3
      objectReference: {fileID: 0}
    - target: {fileID: 6116960192982459333, guid: de1b3cd7d71e54f068806ddf313e5262, type: 3}
      propertyPath: m_LocalPosition.x
      value: -1.5
      objectReference: {fileID: 0}
    - target: {fileID: 6116960192982459333, guid: de1b3cd7d71e54f068806ddf313e5262, type: 3}
      propertyPath: m_LocalPosition.y
      value: 0
      objectReference: {fileID: 0}
    - target: {fileID: 6116960192982459333, guid: de1b3cd7d71e54f068806ddf313e5262, type: 3}
      propertyPath: m_LocalPosition.z
      value: -4.5
      objectReference: {fileID: 0}
    - target: {fileID: 6116960192982459333, guid: de1b3cd7d71e54f068806ddf313e5262, type: 3}
      propertyPath: m_LocalRotation.w
      value: 1
      objectReference: {fileID: 0}
    - target: {fileID: 6116960192982459333, guid: de1b3cd7d71e54f068806ddf313e5262, type: 3}
      propertyPath: m_LocalRotation.x
      value: -0
      objectReference: {fileID: 0}
    - target: {fileID: 6116960192982459333, guid: de1b3cd7d71e54f068806ddf313e5262, type: 3}
      propertyPath: m_LocalRotation.y
      value: -0
      objectReference: {fileID: 0}
    - target: {fileID: 6116960192982459333, guid: de1b3cd7d71e54f068806ddf313e5262, type: 3}
      propertyPath: m_LocalRotation.z
      value: -0
      objectReference: {fileID: 0}
    - target: {fileID: 6116960192982459333, guid: de1b3cd7d71e54f068806ddf313e5262, type: 3}
      propertyPath: m_LocalEulerAnglesHint.x
      value: 0
      objectReference: {fileID: 0}
    - target: {fileID: 6116960192982459333, guid: de1b3cd7d71e54f068806ddf313e5262, type: 3}
      propertyPath: m_LocalEulerAnglesHint.y
      value: 0
      objectReference: {fileID: 0}
    - target: {fileID: 6116960192982459333, guid: de1b3cd7d71e54f068806ddf313e5262, type: 3}
      propertyPath: m_LocalEulerAnglesHint.z
      value: 0
      objectReference: {fileID: 0}
    - target: {fileID: 6116960192982459334, guid: de1b3cd7d71e54f068806ddf313e5262, type: 3}
      propertyPath: m_Name
      value: Tile (3)
      objectReference: {fileID: 0}
    m_RemovedComponents: []
  m_SourcePrefab: {fileID: 100100000, guid: de1b3cd7d71e54f068806ddf313e5262, type: 3}
--- !u!4 &71767679 stripped
Transform:
  m_CorrespondingSourceObject: {fileID: 6116960192982459333, guid: de1b3cd7d71e54f068806ddf313e5262, type: 3}
  m_PrefabInstance: {fileID: 402426478}
  m_PrefabAsset: {fileID: 0}
--- !u!1001 &244036078
PrefabInstance:
  m_ObjectHideFlags: 0
  serializedVersion: 2
  m_Modification:
    m_TransformParent: {fileID: 412614268}
    m_Modifications:
    - target: {fileID: 6116960192982459333, guid: de1b3cd7d71e54f068806ddf313e5262, type: 3}
      propertyPath: m_RootOrder
      value: 10
      objectReference: {fileID: 0}
    - target: {fileID: 6116960192982459333, guid: de1b3cd7d71e54f068806ddf313e5262, type: 3}
      propertyPath: m_LocalPosition.x
      value: 4.5
      objectReference: {fileID: 0}
    - target: {fileID: 6116960192982459333, guid: de1b3cd7d71e54f068806ddf313e5262, type: 3}
      propertyPath: m_LocalPosition.y
      value: 0
      objectReference: {fileID: 0}
    - target: {fileID: 6116960192982459333, guid: de1b3cd7d71e54f068806ddf313e5262, type: 3}
      propertyPath: m_LocalPosition.z
      value: -3.5
      objectReference: {fileID: 0}
    - target: {fileID: 6116960192982459333, guid: de1b3cd7d71e54f068806ddf313e5262, type: 3}
      propertyPath: m_LocalRotation.w
      value: 1
      objectReference: {fileID: 0}
    - target: {fileID: 6116960192982459333, guid: de1b3cd7d71e54f068806ddf313e5262, type: 3}
      propertyPath: m_LocalRotation.x
      value: -0
      objectReference: {fileID: 0}
    - target: {fileID: 6116960192982459333, guid: de1b3cd7d71e54f068806ddf313e5262, type: 3}
      propertyPath: m_LocalRotation.y
      value: -0
      objectReference: {fileID: 0}
    - target: {fileID: 6116960192982459333, guid: de1b3cd7d71e54f068806ddf313e5262, type: 3}
      propertyPath: m_LocalRotation.z
      value: -0
      objectReference: {fileID: 0}
    - target: {fileID: 6116960192982459333, guid: de1b3cd7d71e54f068806ddf313e5262, type: 3}
      propertyPath: m_LocalEulerAnglesHint.x
      value: 0
      objectReference: {fileID: 0}
    - target: {fileID: 6116960192982459333, guid: de1b3cd7d71e54f068806ddf313e5262, type: 3}
      propertyPath: m_LocalEulerAnglesHint.y
      value: 0
      objectReference: {fileID: 0}
    - target: {fileID: 6116960192982459333, guid: de1b3cd7d71e54f068806ddf313e5262, type: 3}
      propertyPath: m_LocalEulerAnglesHint.z
      value: 0
      objectReference: {fileID: 0}
    - target: {fileID: 6116960192982459334, guid: de1b3cd7d71e54f068806ddf313e5262, type: 3}
      propertyPath: m_Name
      value: Tile (10)
      objectReference: {fileID: 0}
    m_RemovedComponents: []
  m_SourcePrefab: {fileID: 100100000, guid: de1b3cd7d71e54f068806ddf313e5262, type: 3}
--- !u!1001 &271479222
PrefabInstance:
  m_ObjectHideFlags: 0
  serializedVersion: 2
  m_Modification:
    m_TransformParent: {fileID: 412614268}
    m_Modifications:
    - target: {fileID: 6116960192982459333, guid: de1b3cd7d71e54f068806ddf313e5262, type: 3}
      propertyPath: m_RootOrder
      value: 11
      objectReference: {fileID: 0}
    - target: {fileID: 6116960192982459333, guid: de1b3cd7d71e54f068806ddf313e5262, type: 3}
      propertyPath: m_LocalPosition.x
      value: 4.5
      objectReference: {fileID: 0}
    - target: {fileID: 6116960192982459333, guid: de1b3cd7d71e54f068806ddf313e5262, type: 3}
      propertyPath: m_LocalPosition.y
      value: 0
      objectReference: {fileID: 0}
    - target: {fileID: 6116960192982459333, guid: de1b3cd7d71e54f068806ddf313e5262, type: 3}
      propertyPath: m_LocalPosition.z
      value: -2.5
      objectReference: {fileID: 0}
    - target: {fileID: 6116960192982459333, guid: de1b3cd7d71e54f068806ddf313e5262, type: 3}
      propertyPath: m_LocalRotation.w
      value: 1
      objectReference: {fileID: 0}
    - target: {fileID: 6116960192982459333, guid: de1b3cd7d71e54f068806ddf313e5262, type: 3}
      propertyPath: m_LocalRotation.x
      value: -0
      objectReference: {fileID: 0}
    - target: {fileID: 6116960192982459333, guid: de1b3cd7d71e54f068806ddf313e5262, type: 3}
      propertyPath: m_LocalRotation.y
      value: -0
      objectReference: {fileID: 0}
    - target: {fileID: 6116960192982459333, guid: de1b3cd7d71e54f068806ddf313e5262, type: 3}
      propertyPath: m_LocalRotation.z
      value: -0
      objectReference: {fileID: 0}
    - target: {fileID: 6116960192982459333, guid: de1b3cd7d71e54f068806ddf313e5262, type: 3}
      propertyPath: m_LocalEulerAnglesHint.x
      value: 0
      objectReference: {fileID: 0}
    - target: {fileID: 6116960192982459333, guid: de1b3cd7d71e54f068806ddf313e5262, type: 3}
      propertyPath: m_LocalEulerAnglesHint.y
      value: 0
      objectReference: {fileID: 0}
    - target: {fileID: 6116960192982459333, guid: de1b3cd7d71e54f068806ddf313e5262, type: 3}
      propertyPath: m_LocalEulerAnglesHint.z
      value: 0
      objectReference: {fileID: 0}
    - target: {fileID: 6116960192982459334, guid: de1b3cd7d71e54f068806ddf313e5262, type: 3}
      propertyPath: m_Name
      value: Tile (11)
      objectReference: {fileID: 0}
    m_RemovedComponents: []
  m_SourcePrefab: {fileID: 100100000, guid: de1b3cd7d71e54f068806ddf313e5262, type: 3}
--- !u!1 &273064292
GameObject:
  m_ObjectHideFlags: 0
  m_CorrespondingSourceObject: {fileID: 0}
  m_PrefabInstance: {fileID: 0}
  m_PrefabAsset: {fileID: 0}
  serializedVersion: 6
  m_Component:
  - component: {fileID: 273064295}
  - component: {fileID: 273064294}
  - component: {fileID: 273064293}
  - component: {fileID: 273064296}
  m_Layer: 0
  m_Name: Main Camera
  m_TagString: MainCamera
  m_Icon: {fileID: 0}
  m_NavMeshLayer: 0
  m_StaticEditorFlags: 0
  m_IsActive: 1
--- !u!81 &273064293
AudioListener:
  m_ObjectHideFlags: 0
  m_CorrespondingSourceObject: {fileID: 0}
  m_PrefabInstance: {fileID: 0}
  m_PrefabAsset: {fileID: 0}
  m_GameObject: {fileID: 273064292}
  m_Enabled: 1
--- !u!20 &273064294
Camera:
  m_ObjectHideFlags: 0
  m_CorrespondingSourceObject: {fileID: 0}
  m_PrefabInstance: {fileID: 0}
  m_PrefabAsset: {fileID: 0}
  m_GameObject: {fileID: 273064292}
  m_Enabled: 1
  serializedVersion: 2
  m_ClearFlags: 1
  m_BackGroundColor: {r: 0.19215687, g: 0.3019608, b: 0.4745098, a: 0}
  m_projectionMatrixMode: 1
  m_GateFitMode: 2
  m_FOVAxisMode: 0
  m_SensorSize: {x: 36, y: 24}
  m_LensShift: {x: 0, y: 0}
  m_FocalLength: 50
  m_NormalizedViewPortRect:
    serializedVersion: 2
    x: 0
    y: 0
    width: 1
    height: 1
  near clip plane: 0.3
  far clip plane: 1000
  field of view: 60
  orthographic: 0
  orthographic size: 5
  m_Depth: -1
  m_CullingMask:
    serializedVersion: 2
    m_Bits: 4294967295
  m_RenderingPath: -1
  m_TargetTexture: {fileID: 0}
  m_TargetDisplay: 0
  m_TargetEye: 3
  m_HDR: 1
  m_AllowMSAA: 1
  m_AllowDynamicResolution: 0
  m_ForceIntoRT: 0
  m_OcclusionCulling: 1
  m_StereoConvergence: 10
  m_StereoSeparation: 0.022
--- !u!4 &273064295
Transform:
  m_ObjectHideFlags: 0
  m_CorrespondingSourceObject: {fileID: 0}
  m_PrefabInstance: {fileID: 0}
  m_PrefabAsset: {fileID: 0}
  m_GameObject: {fileID: 273064292}
  m_LocalRotation: {x: 0.7071068, y: 0, z: 0, w: 0.7071068}
  m_LocalPosition: {x: 5, y: 50, z: 5}
  m_LocalScale: {x: 1, y: 1, z: 1}
  m_Children: []
  m_Father: {fileID: 0}
  m_RootOrder: 0
  m_LocalEulerAnglesHint: {x: 90, y: 0, z: 0}
--- !u!114 &273064296
MonoBehaviour:
  m_ObjectHideFlags: 0
  m_CorrespondingSourceObject: {fileID: 0}
  m_PrefabInstance: {fileID: 0}
  m_PrefabAsset: {fileID: 0}
  m_GameObject: {fileID: 273064292}
  m_Enabled: 1
  m_EditorHideFlags: 0
  m_Script: {fileID: 11500000, guid: a79441f348de89743a2939f4d699eac1, type: 3}
  m_Name: 
  m_EditorClassIdentifier: 
  m_RenderShadows: 1
  m_RequiresDepthTextureOption: 2
  m_RequiresOpaqueTextureOption: 2
  m_CameraType: 0
  m_Cameras: []
  m_RendererIndex: -1
  m_VolumeLayerMask:
    serializedVersion: 2
    m_Bits: 1
  m_VolumeTrigger: {fileID: 0}
  m_RenderPostProcessing: 0
  m_Antialiasing: 0
  m_AntialiasingQuality: 2
  m_StopNaN: 0
  m_Dithering: 0
  m_ClearDepth: 1
  m_AllowXRRendering: 1
  m_RequiresDepthTexture: 0
  m_RequiresColorTexture: 0
  m_Version: 2
--- !u!1001 &350113063
PrefabInstance:
  m_ObjectHideFlags: 0
  serializedVersion: 2
  m_Modification:
    m_TransformParent: {fileID: 412614268}
    m_Modifications:
    - target: {fileID: 6116960192982459333, guid: de1b3cd7d71e54f068806ddf313e5262, type: 3}
      propertyPath: m_RootOrder
      value: 7
      objectReference: {fileID: 0}
    - target: {fileID: 6116960192982459333, guid: de1b3cd7d71e54f068806ddf313e5262, type: 3}
      propertyPath: m_LocalPosition.x
      value: 2.5
      objectReference: {fileID: 0}
    - target: {fileID: 6116960192982459333, guid: de1b3cd7d71e54f068806ddf313e5262, type: 3}
      propertyPath: m_LocalPosition.y
      value: 0
      objectReference: {fileID: 0}
    - target: {fileID: 6116960192982459333, guid: de1b3cd7d71e54f068806ddf313e5262, type: 3}
      propertyPath: m_LocalPosition.z
      value: -4.5
      objectReference: {fileID: 0}
    - target: {fileID: 6116960192982459333, guid: de1b3cd7d71e54f068806ddf313e5262, type: 3}
      propertyPath: m_LocalRotation.w
      value: 1
      objectReference: {fileID: 0}
    - target: {fileID: 6116960192982459333, guid: de1b3cd7d71e54f068806ddf313e5262, type: 3}
      propertyPath: m_LocalRotation.x
      value: -0
      objectReference: {fileID: 0}
    - target: {fileID: 6116960192982459333, guid: de1b3cd7d71e54f068806ddf313e5262, type: 3}
      propertyPath: m_LocalRotation.y
      value: -0
      objectReference: {fileID: 0}
    - target: {fileID: 6116960192982459333, guid: de1b3cd7d71e54f068806ddf313e5262, type: 3}
      propertyPath: m_LocalRotation.z
      value: -0
      objectReference: {fileID: 0}
    - target: {fileID: 6116960192982459333, guid: de1b3cd7d71e54f068806ddf313e5262, type: 3}
      propertyPath: m_LocalEulerAnglesHint.x
      value: 0
      objectReference: {fileID: 0}
    - target: {fileID: 6116960192982459333, guid: de1b3cd7d71e54f068806ddf313e5262, type: 3}
      propertyPath: m_LocalEulerAnglesHint.y
      value: 0
      objectReference: {fileID: 0}
    - target: {fileID: 6116960192982459333, guid: de1b3cd7d71e54f068806ddf313e5262, type: 3}
      propertyPath: m_LocalEulerAnglesHint.z
      value: 0
      objectReference: {fileID: 0}
    - target: {fileID: 6116960192982459334, guid: de1b3cd7d71e54f068806ddf313e5262, type: 3}
      propertyPath: m_Name
      value: Tile (7)
      objectReference: {fileID: 0}
    m_RemovedComponents: []
  m_SourcePrefab: {fileID: 100100000, guid: de1b3cd7d71e54f068806ddf313e5262, type: 3}
--- !u!4 &401830794 stripped
Transform:
  m_CorrespondingSourceObject: {fileID: 6116960192982459333, guid: de1b3cd7d71e54f068806ddf313e5262, type: 3}
  m_PrefabInstance: {fileID: 244036078}
  m_PrefabAsset: {fileID: 0}
--- !u!1001 &402426478
PrefabInstance:
  m_ObjectHideFlags: 0
  serializedVersion: 2
  m_Modification:
    m_TransformParent: {fileID: 412614268}
    m_Modifications:
    - target: {fileID: 6116960192982459333, guid: de1b3cd7d71e54f068806ddf313e5262, type: 3}
      propertyPath: m_RootOrder
      value: 9
      objectReference: {fileID: 0}
    - target: {fileID: 6116960192982459333, guid: de1b3cd7d71e54f068806ddf313e5262, type: 3}
      propertyPath: m_LocalPosition.x
      value: 4.5
      objectReference: {fileID: 0}
    - target: {fileID: 6116960192982459333, guid: de1b3cd7d71e54f068806ddf313e5262, type: 3}
      propertyPath: m_LocalPosition.y
      value: 0
      objectReference: {fileID: 0}
    - target: {fileID: 6116960192982459333, guid: de1b3cd7d71e54f068806ddf313e5262, type: 3}
      propertyPath: m_LocalPosition.z
      value: -4.5
      objectReference: {fileID: 0}
    - target: {fileID: 6116960192982459333, guid: de1b3cd7d71e54f068806ddf313e5262, type: 3}
      propertyPath: m_LocalRotation.w
      value: 1
      objectReference: {fileID: 0}
    - target: {fileID: 6116960192982459333, guid: de1b3cd7d71e54f068806ddf313e5262, type: 3}
      propertyPath: m_LocalRotation.x
      value: -0
      objectReference: {fileID: 0}
    - target: {fileID: 6116960192982459333, guid: de1b3cd7d71e54f068806ddf313e5262, type: 3}
      propertyPath: m_LocalRotation.y
      value: -0
      objectReference: {fileID: 0}
    - target: {fileID: 6116960192982459333, guid: de1b3cd7d71e54f068806ddf313e5262, type: 3}
      propertyPath: m_LocalRotation.z
      value: -0
      objectReference: {fileID: 0}
    - target: {fileID: 6116960192982459333, guid: de1b3cd7d71e54f068806ddf313e5262, type: 3}
      propertyPath: m_LocalEulerAnglesHint.x
      value: 0
      objectReference: {fileID: 0}
    - target: {fileID: 6116960192982459333, guid: de1b3cd7d71e54f068806ddf313e5262, type: 3}
      propertyPath: m_LocalEulerAnglesHint.y
      value: 0
      objectReference: {fileID: 0}
    - target: {fileID: 6116960192982459333, guid: de1b3cd7d71e54f068806ddf313e5262, type: 3}
      propertyPath: m_LocalEulerAnglesHint.z
      value: 0
      objectReference: {fileID: 0}
    - target: {fileID: 6116960192982459334, guid: de1b3cd7d71e54f068806ddf313e5262, type: 3}
      propertyPath: m_Name
      value: Tile (9)
      objectReference: {fileID: 0}
    m_RemovedComponents: []
  m_SourcePrefab: {fileID: 100100000, guid: de1b3cd7d71e54f068806ddf313e5262, type: 3}
--- !u!1 &412614267
GameObject:
  m_ObjectHideFlags: 0
  m_CorrespondingSourceObject: {fileID: 0}
  m_PrefabInstance: {fileID: 0}
  m_PrefabAsset: {fileID: 0}
  serializedVersion: 6
  m_Component:
  - component: {fileID: 412614268}
  m_Layer: 0
  m_Name: Room LR
  m_TagString: Untagged
  m_Icon: {fileID: 7174288486110832750, guid: 0000000000000000d000000000000000, type: 0}
  m_NavMeshLayer: 0
  m_StaticEditorFlags: 0
  m_IsActive: 0
--- !u!4 &412614268
Transform:
  m_ObjectHideFlags: 0
  m_CorrespondingSourceObject: {fileID: 0}
  m_PrefabInstance: {fileID: 0}
  m_PrefabAsset: {fileID: 0}
  m_GameObject: {fileID: 412614267}
  m_LocalRotation: {x: 0, y: 0, z: 0, w: 1}
  m_LocalPosition: {x: 5, y: 0, z: 5}
  m_LocalScale: {x: 1, y: 1, z: 1}
  m_Children:
  - {fileID: 2106447926}
  - {fileID: 604680610}
  - {fileID: 1234214739}
  - {fileID: 1050604807}
  - {fileID: 951842576}
  - {fileID: 591894731}
  - {fileID: 1595032837}
  - {fileID: 1241398845}
  - {fileID: 808868083}
  - {fileID: 71767679}
  - {fileID: 401830794}
  - {fileID: 1324268476}
  - {fileID: 1184584781}
  m_Father: {fileID: 0}
  m_RootOrder: 2
  m_LocalEulerAnglesHint: {x: 0, y: 0, z: 0}
--- !u!1001 &468469296
PrefabInstance:
  m_ObjectHideFlags: 0
  serializedVersion: 2
  m_Modification:
    m_TransformParent: {fileID: 412614268}
    m_Modifications:
    - target: {fileID: 6116960192982459333, guid: de1b3cd7d71e54f068806ddf313e5262, type: 3}
      propertyPath: m_RootOrder
      value: 1
      objectReference: {fileID: 0}
    - target: {fileID: 6116960192982459333, guid: de1b3cd7d71e54f068806ddf313e5262, type: 3}
      propertyPath: m_LocalPosition.x
      value: -3.5
      objectReference: {fileID: 0}
    - target: {fileID: 6116960192982459333, guid: de1b3cd7d71e54f068806ddf313e5262, type: 3}
      propertyPath: m_LocalPosition.y
      value: 0
      objectReference: {fileID: 0}
    - target: {fileID: 6116960192982459333, guid: de1b3cd7d71e54f068806ddf313e5262, type: 3}
      propertyPath: m_LocalPosition.z
      value: -4.5
      objectReference: {fileID: 0}
    - target: {fileID: 6116960192982459333, guid: de1b3cd7d71e54f068806ddf313e5262, type: 3}
      propertyPath: m_LocalRotation.w
      value: 1
      objectReference: {fileID: 0}
    - target: {fileID: 6116960192982459333, guid: de1b3cd7d71e54f068806ddf313e5262, type: 3}
      propertyPath: m_LocalRotation.x
      value: -0
      objectReference: {fileID: 0}
    - target: {fileID: 6116960192982459333, guid: de1b3cd7d71e54f068806ddf313e5262, type: 3}
      propertyPath: m_LocalRotation.y
      value: -0
      objectReference: {fileID: 0}
    - target: {fileID: 6116960192982459333, guid: de1b3cd7d71e54f068806ddf313e5262, type: 3}
      propertyPath: m_LocalRotation.z
      value: -0
      objectReference: {fileID: 0}
    - target: {fileID: 6116960192982459333, guid: de1b3cd7d71e54f068806ddf313e5262, type: 3}
      propertyPath: m_LocalEulerAnglesHint.x
      value: 0
      objectReference: {fileID: 0}
    - target: {fileID: 6116960192982459333, guid: de1b3cd7d71e54f068806ddf313e5262, type: 3}
      propertyPath: m_LocalEulerAnglesHint.y
      value: 0
      objectReference: {fileID: 0}
    - target: {fileID: 6116960192982459333, guid: de1b3cd7d71e54f068806ddf313e5262, type: 3}
      propertyPath: m_LocalEulerAnglesHint.z
      value: 0
      objectReference: {fileID: 0}
    - target: {fileID: 6116960192982459334, guid: de1b3cd7d71e54f068806ddf313e5262, type: 3}
      propertyPath: m_Name
      value: Tile (1)
      objectReference: {fileID: 0}
    m_RemovedComponents: []
  m_SourcePrefab: {fileID: 100100000, guid: de1b3cd7d71e54f068806ddf313e5262, type: 3}
--- !u!1 &584023398
GameObject:
  m_ObjectHideFlags: 0
  m_CorrespondingSourceObject: {fileID: 0}
  m_PrefabInstance: {fileID: 0}
  m_PrefabAsset: {fileID: 0}
  serializedVersion: 6
  m_Component:
  - component: {fileID: 584023400}
  - component: {fileID: 584023399}
  m_Layer: 0
  m_Name: Directional Light
  m_TagString: Untagged
  m_Icon: {fileID: 0}
  m_NavMeshLayer: 0
  m_StaticEditorFlags: 0
  m_IsActive: 1
--- !u!108 &584023399
Light:
  m_ObjectHideFlags: 0
  m_CorrespondingSourceObject: {fileID: 0}
  m_PrefabInstance: {fileID: 0}
  m_PrefabAsset: {fileID: 0}
  m_GameObject: {fileID: 584023398}
  m_Enabled: 1
  serializedVersion: 10
  m_Type: 1
  m_Shape: 0
  m_Color: {r: 1, g: 0.95686275, b: 0.8392157, a: 1}
  m_Intensity: 1
  m_Range: 10
  m_SpotAngle: 30
  m_InnerSpotAngle: 21.80208
  m_CookieSize: 10
  m_Shadows:
    m_Type: 2
    m_Resolution: -1
    m_CustomResolution: -1
    m_Strength: 1
    m_Bias: 0.05
    m_NormalBias: 0.4
    m_NearPlane: 0.2
    m_CullingMatrixOverride:
      e00: 1
      e01: 0
      e02: 0
      e03: 0
      e10: 0
      e11: 1
      e12: 0
      e13: 0
      e20: 0
      e21: 0
      e22: 1
      e23: 0
      e30: 0
      e31: 0
      e32: 0
      e33: 1
    m_UseCullingMatrixOverride: 0
  m_Cookie: {fileID: 0}
  m_DrawHalo: 0
  m_Flare: {fileID: 0}
  m_RenderMode: 0
  m_CullingMask:
    serializedVersion: 2
    m_Bits: 4294967295
  m_RenderingLayerMask: 1
  m_Lightmapping: 4
  m_LightShadowCasterMode: 0
  m_AreaSize: {x: 1, y: 1}
  m_BounceIntensity: 1
  m_ColorTemperature: 6570
  m_UseColorTemperature: 0
  m_BoundingSphereOverride: {x: 0, y: 0, z: 0, w: 0}
  m_UseBoundingSphereOverride: 0
  m_UseViewFrustumForShadowCasterCull: 1
  m_ShadowRadius: 0
  m_ShadowAngle: 0
--- !u!4 &584023400
Transform:
  m_ObjectHideFlags: 0
  m_CorrespondingSourceObject: {fileID: 0}
  m_PrefabInstance: {fileID: 0}
  m_PrefabAsset: {fileID: 0}
  m_GameObject: {fileID: 584023398}
  m_LocalRotation: {x: 0.40821788, y: -0.23456968, z: 0.10938163, w: 0.8754261}
  m_LocalPosition: {x: 0, y: 3, z: 0}
  m_LocalScale: {x: 1, y: 1, z: 1}
  m_Children: []
  m_Father: {fileID: 0}
  m_RootOrder: 1
  m_LocalEulerAnglesHint: {x: 50, y: -30, z: 0}
--- !u!4 &591894731 stripped
Transform:
  m_CorrespondingSourceObject: {fileID: 6116960192982459333, guid: de1b3cd7d71e54f068806ddf313e5262, type: 3}
  m_PrefabInstance: {fileID: 1760333777}
  m_PrefabAsset: {fileID: 0}
--- !u!4 &604680610 stripped
Transform:
  m_CorrespondingSourceObject: {fileID: 6116960192982459333, guid: de1b3cd7d71e54f068806ddf313e5262, type: 3}
  m_PrefabInstance: {fileID: 468469296}
  m_PrefabAsset: {fileID: 0}
--- !u!4 &808868083 stripped
Transform:
  m_CorrespondingSourceObject: {fileID: 6116960192982459333, guid: de1b3cd7d71e54f068806ddf313e5262, type: 3}
  m_PrefabInstance: {fileID: 1956222168}
  m_PrefabAsset: {fileID: 0}
--- !u!4 &951842576 stripped
Transform:
  m_CorrespondingSourceObject: {fileID: 6116960192982459333, guid: de1b3cd7d71e54f068806ddf313e5262, type: 3}
  m_PrefabInstance: {fileID: 1802861487}
  m_PrefabAsset: {fileID: 0}
--- !u!4 &1050604807 stripped
Transform:
  m_CorrespondingSourceObject: {fileID: 6116960192982459333, guid: de1b3cd7d71e54f068806ddf313e5262, type: 3}
  m_PrefabInstance: {fileID: 55624134}
  m_PrefabAsset: {fileID: 0}
--- !u!1001 &1171762058
PrefabInstance:
  m_ObjectHideFlags: 0
  serializedVersion: 2
  m_Modification:
    m_TransformParent: {fileID: 412614268}
    m_Modifications:
    - target: {fileID: 6116960192982459333, guid: de1b3cd7d71e54f068806ddf313e5262, type: 3}
      propertyPath: m_RootOrder
      value: 12
      objectReference: {fileID: 0}
    - target: {fileID: 6116960192982459333, guid: de1b3cd7d71e54f068806ddf313e5262, type: 3}
      propertyPath: m_LocalPosition.x
      value: 4.5
      objectReference: {fileID: 0}
    - target: {fileID: 6116960192982459333, guid: de1b3cd7d71e54f068806ddf313e5262, type: 3}
      propertyPath: m_LocalPosition.y
      value: 0
      objectReference: {fileID: 0}
    - target: {fileID: 6116960192982459333, guid: de1b3cd7d71e54f068806ddf313e5262, type: 3}
      propertyPath: m_LocalPosition.z
      value: -1.5
      objectReference: {fileID: 0}
    - target: {fileID: 6116960192982459333, guid: de1b3cd7d71e54f068806ddf313e5262, type: 3}
      propertyPath: m_LocalRotation.w
      value: 1
      objectReference: {fileID: 0}
    - target: {fileID: 6116960192982459333, guid: de1b3cd7d71e54f068806ddf313e5262, type: 3}
      propertyPath: m_LocalRotation.x
      value: -0
      objectReference: {fileID: 0}
    - target: {fileID: 6116960192982459333, guid: de1b3cd7d71e54f068806ddf313e5262, type: 3}
      propertyPath: m_LocalRotation.y
      value: -0
      objectReference: {fileID: 0}
    - target: {fileID: 6116960192982459333, guid: de1b3cd7d71e54f068806ddf313e5262, type: 3}
      propertyPath: m_LocalRotation.z
      value: -0
      objectReference: {fileID: 0}
    - target: {fileID: 6116960192982459333, guid: de1b3cd7d71e54f068806ddf313e5262, type: 3}
      propertyPath: m_LocalEulerAnglesHint.x
      value: 0
      objectReference: {fileID: 0}
    - target: {fileID: 6116960192982459333, guid: de1b3cd7d71e54f068806ddf313e5262, type: 3}
      propertyPath: m_LocalEulerAnglesHint.y
      value: 0
      objectReference: {fileID: 0}
    - target: {fileID: 6116960192982459333, guid: de1b3cd7d71e54f068806ddf313e5262, type: 3}
      propertyPath: m_LocalEulerAnglesHint.z
      value: 0
      objectReference: {fileID: 0}
    - target: {fileID: 6116960192982459334, guid: de1b3cd7d71e54f068806ddf313e5262, type: 3}
      propertyPath: m_Name
      value: Tile (12)
      objectReference: {fileID: 0}
    m_RemovedComponents: []
  m_SourcePrefab: {fileID: 100100000, guid: de1b3cd7d71e54f068806ddf313e5262, type: 3}
--- !u!4 &1184584781 stripped
Transform:
  m_CorrespondingSourceObject: {fileID: 6116960192982459333, guid: de1b3cd7d71e54f068806ddf313e5262, type: 3}
  m_PrefabInstance: {fileID: 1171762058}
  m_PrefabAsset: {fileID: 0}
--- !u!4 &1234214739 stripped
Transform:
  m_CorrespondingSourceObject: {fileID: 6116960192982459333, guid: de1b3cd7d71e54f068806ddf313e5262, type: 3}
  m_PrefabInstance: {fileID: 1663801936}
  m_PrefabAsset: {fileID: 0}
--- !u!4 &1241398845 stripped
Transform:
  m_CorrespondingSourceObject: {fileID: 6116960192982459333, guid: de1b3cd7d71e54f068806ddf313e5262, type: 3}
  m_PrefabInstance: {fileID: 350113063}
  m_PrefabAsset: {fileID: 0}
--- !u!4 &1324268476 stripped
Transform:
  m_CorrespondingSourceObject: {fileID: 6116960192982459333, guid: de1b3cd7d71e54f068806ddf313e5262, type: 3}
  m_PrefabInstance: {fileID: 271479222}
  m_PrefabAsset: {fileID: 0}
--- !u!4 &1595032837 stripped
Transform:
  m_CorrespondingSourceObject: {fileID: 6116960192982459333, guid: de1b3cd7d71e54f068806ddf313e5262, type: 3}
  m_PrefabInstance: {fileID: 2037018406}
  m_PrefabAsset: {fileID: 0}
--- !u!1001 &1663801936
PrefabInstance:
  m_ObjectHideFlags: 0
  serializedVersion: 2
  m_Modification:
    m_TransformParent: {fileID: 412614268}
    m_Modifications:
    - target: {fileID: 6116960192982459333, guid: de1b3cd7d71e54f068806ddf313e5262, type: 3}
      propertyPath: m_RootOrder
      value: 2
      objectReference: {fileID: 0}
    - target: {fileID: 6116960192982459333, guid: de1b3cd7d71e54f068806ddf313e5262, type: 3}
      propertyPath: m_LocalPosition.x
      value: -2.5
      objectReference: {fileID: 0}
    - target: {fileID: 6116960192982459333, guid: de1b3cd7d71e54f068806ddf313e5262, type: 3}
      propertyPath: m_LocalPosition.y
      value: 0
      objectReference: {fileID: 0}
    - target: {fileID: 6116960192982459333, guid: de1b3cd7d71e54f068806ddf313e5262, type: 3}
      propertyPath: m_LocalPosition.z
      value: -4.5
      objectReference: {fileID: 0}
    - target: {fileID: 6116960192982459333, guid: de1b3cd7d71e54f068806ddf313e5262, type: 3}
      propertyPath: m_LocalRotation.w
      value: 1
      objectReference: {fileID: 0}
    - target: {fileID: 6116960192982459333, guid: de1b3cd7d71e54f068806ddf313e5262, type: 3}
      propertyPath: m_LocalRotation.x
      value: -0
      objectReference: {fileID: 0}
    - target: {fileID: 6116960192982459333, guid: de1b3cd7d71e54f068806ddf313e5262, type: 3}
      propertyPath: m_LocalRotation.y
      value: -0
      objectReference: {fileID: 0}
    - target: {fileID: 6116960192982459333, guid: de1b3cd7d71e54f068806ddf313e5262, type: 3}
      propertyPath: m_LocalRotation.z
      value: -0
      objectReference: {fileID: 0}
    - target: {fileID: 6116960192982459333, guid: de1b3cd7d71e54f068806ddf313e5262, type: 3}
      propertyPath: m_LocalEulerAnglesHint.x
      value: 0
      objectReference: {fileID: 0}
    - target: {fileID: 6116960192982459333, guid: de1b3cd7d71e54f068806ddf313e5262, type: 3}
      propertyPath: m_LocalEulerAnglesHint.y
      value: 0
      objectReference: {fileID: 0}
    - target: {fileID: 6116960192982459333, guid: de1b3cd7d71e54f068806ddf313e5262, type: 3}
      propertyPath: m_LocalEulerAnglesHint.z
      value: 0
      objectReference: {fileID: 0}
    - target: {fileID: 6116960192982459334, guid: de1b3cd7d71e54f068806ddf313e5262, type: 3}
      propertyPath: m_Name
      value: Tile (2)
      objectReference: {fileID: 0}
    m_RemovedComponents: []
  m_SourcePrefab: {fileID: 100100000, guid: de1b3cd7d71e54f068806ddf313e5262, type: 3}
--- !u!1 &1717294186
GameObject:
  m_ObjectHideFlags: 0
  m_CorrespondingSourceObject: {fileID: 0}
  m_PrefabInstance: {fileID: 0}
  m_PrefabAsset: {fileID: 0}
  serializedVersion: 6
  m_Component:
  - component: {fileID: 1717294188}
  - component: {fileID: 1717294187}
  m_Layer: 0
  m_Name: RoomSpawner
  m_TagString: Untagged
  m_Icon: {fileID: 0}
  m_NavMeshLayer: 0
  m_StaticEditorFlags: 0
  m_IsActive: 1
--- !u!114 &1717294187
MonoBehaviour:
  m_ObjectHideFlags: 0
  m_CorrespondingSourceObject: {fileID: 0}
  m_PrefabInstance: {fileID: 0}
  m_PrefabAsset: {fileID: 0}
  m_GameObject: {fileID: 1717294186}
  m_Enabled: 1
  m_EditorHideFlags: 0
  m_Script: {fileID: 11500000, guid: c8f13253352841989f3d937f128c2510, type: 3}
  m_Name: 
  m_EditorClassIdentifier: 
  rooms:
  - {fileID: 11400000, guid: af2639a7910e148fcb325bfe66f9da67, type: 2}
  - {fileID: 11400000, guid: af2639a7910e148fcb325bfe66f9da67, type: 2}
  - {fileID: 11400000, guid: d4600f4fc342d461597e8b6621cfc730, type: 2}
  - {fileID: 11400000, guid: af2639a7910e148fcb325bfe66f9da67, type: 2}
  - {fileID: 11400000, guid: af2639a7910e148fcb325bfe66f9da67, type: 2}
--- !u!4 &1717294188
Transform:
  m_ObjectHideFlags: 0
  m_CorrespondingSourceObject: {fileID: 0}
  m_PrefabInstance: {fileID: 0}
  m_PrefabAsset: {fileID: 0}
  m_GameObject: {fileID: 1717294186}
  m_LocalRotation: {x: 0, y: 0, z: 0, w: 1}
  m_LocalPosition: {x: 0, y: 0, z: 0}
  m_LocalScale: {x: 1, y: 1, z: 1}
  m_Children: []
  m_Father: {fileID: 0}
  m_RootOrder: 3
  m_LocalEulerAnglesHint: {x: 0, y: 0, z: 0}
--- !u!1001 &1760333777
PrefabInstance:
  m_ObjectHideFlags: 0
  serializedVersion: 2
  m_Modification:
    m_TransformParent: {fileID: 412614268}
    m_Modifications:
    - target: {fileID: 6116960192982459333, guid: de1b3cd7d71e54f068806ddf313e5262, type: 3}
      propertyPath: m_RootOrder
      value: 5
      objectReference: {fileID: 0}
    - target: {fileID: 6116960192982459333, guid: de1b3cd7d71e54f068806ddf313e5262, type: 3}
      propertyPath: m_LocalPosition.x
      value: 0.5
      objectReference: {fileID: 0}
    - target: {fileID: 6116960192982459333, guid: de1b3cd7d71e54f068806ddf313e5262, type: 3}
      propertyPath: m_LocalPosition.y
      value: 0
      objectReference: {fileID: 0}
    - target: {fileID: 6116960192982459333, guid: de1b3cd7d71e54f068806ddf313e5262, type: 3}
      propertyPath: m_LocalPosition.z
      value: -4.5
      objectReference: {fileID: 0}
    - target: {fileID: 6116960192982459333, guid: de1b3cd7d71e54f068806ddf313e5262, type: 3}
      propertyPath: m_LocalRotation.w
      value: 1
      objectReference: {fileID: 0}
    - target: {fileID: 6116960192982459333, guid: de1b3cd7d71e54f068806ddf313e5262, type: 3}
      propertyPath: m_LocalRotation.x
      value: -0
      objectReference: {fileID: 0}
    - target: {fileID: 6116960192982459333, guid: de1b3cd7d71e54f068806ddf313e5262, type: 3}
      propertyPath: m_LocalRotation.y
      value: -0
      objectReference: {fileID: 0}
    - target: {fileID: 6116960192982459333, guid: de1b3cd7d71e54f068806ddf313e5262, type: 3}
      propertyPath: m_LocalRotation.z
      value: -0
      objectReference: {fileID: 0}
    - target: {fileID: 6116960192982459333, guid: de1b3cd7d71e54f068806ddf313e5262, type: 3}
      propertyPath: m_LocalEulerAnglesHint.x
      value: 0
      objectReference: {fileID: 0}
    - target: {fileID: 6116960192982459333, guid: de1b3cd7d71e54f068806ddf313e5262, type: 3}
      propertyPath: m_LocalEulerAnglesHint.y
      value: 0
      objectReference: {fileID: 0}
    - target: {fileID: 6116960192982459333, guid: de1b3cd7d71e54f068806ddf313e5262, type: 3}
      propertyPath: m_LocalEulerAnglesHint.z
      value: 0
      objectReference: {fileID: 0}
    - target: {fileID: 6116960192982459334, guid: de1b3cd7d71e54f068806ddf313e5262, type: 3}
      propertyPath: m_Name
      value: Tile (5)
      objectReference: {fileID: 0}
    m_RemovedComponents: []
  m_SourcePrefab: {fileID: 100100000, guid: de1b3cd7d71e54f068806ddf313e5262, type: 3}
--- !u!1001 &1802861487
PrefabInstance:
  m_ObjectHideFlags: 0
  serializedVersion: 2
  m_Modification:
    m_TransformParent: {fileID: 412614268}
    m_Modifications:
    - target: {fileID: 6116960192982459333, guid: de1b3cd7d71e54f068806ddf313e5262, type: 3}
      propertyPath: m_RootOrder
      value: 4
      objectReference: {fileID: 0}
    - target: {fileID: 6116960192982459333, guid: de1b3cd7d71e54f068806ddf313e5262, type: 3}
      propertyPath: m_LocalPosition.x
      value: -0.5
      objectReference: {fileID: 0}
    - target: {fileID: 6116960192982459333, guid: de1b3cd7d71e54f068806ddf313e5262, type: 3}
      propertyPath: m_LocalPosition.y
      value: 0
      objectReference: {fileID: 0}
    - target: {fileID: 6116960192982459333, guid: de1b3cd7d71e54f068806ddf313e5262, type: 3}
      propertyPath: m_LocalPosition.z
      value: -4.5
      objectReference: {fileID: 0}
    - target: {fileID: 6116960192982459333, guid: de1b3cd7d71e54f068806ddf313e5262, type: 3}
      propertyPath: m_LocalRotation.w
      value: 1
      objectReference: {fileID: 0}
    - target: {fileID: 6116960192982459333, guid: de1b3cd7d71e54f068806ddf313e5262, type: 3}
      propertyPath: m_LocalRotation.x
      value: -0
      objectReference: {fileID: 0}
    - target: {fileID: 6116960192982459333, guid: de1b3cd7d71e54f068806ddf313e5262, type: 3}
      propertyPath: m_LocalRotation.y
      value: -0
      objectReference: {fileID: 0}
    - target: {fileID: 6116960192982459333, guid: de1b3cd7d71e54f068806ddf313e5262, type: 3}
      propertyPath: m_LocalRotation.z
      value: -0
      objectReference: {fileID: 0}
    - target: {fileID: 6116960192982459333, guid: de1b3cd7d71e54f068806ddf313e5262, type: 3}
      propertyPath: m_LocalEulerAnglesHint.x
      value: 0
      objectReference: {fileID: 0}
    - target: {fileID: 6116960192982459333, guid: de1b3cd7d71e54f068806ddf313e5262, type: 3}
      propertyPath: m_LocalEulerAnglesHint.y
      value: 0
      objectReference: {fileID: 0}
    - target: {fileID: 6116960192982459333, guid: de1b3cd7d71e54f068806ddf313e5262, type: 3}
      propertyPath: m_LocalEulerAnglesHint.z
      value: 0
      objectReference: {fileID: 0}
    - target: {fileID: 6116960192982459334, guid: de1b3cd7d71e54f068806ddf313e5262, type: 3}
      propertyPath: m_Name
      value: Tile (4)
      objectReference: {fileID: 0}
    m_RemovedComponents: []
  m_SourcePrefab: {fileID: 100100000, guid: de1b3cd7d71e54f068806ddf313e5262, type: 3}
--- !u!1001 &1956222168
PrefabInstance:
  m_ObjectHideFlags: 0
  serializedVersion: 2
  m_Modification:
    m_TransformParent: {fileID: 412614268}
    m_Modifications:
    - target: {fileID: 6116960192982459333, guid: de1b3cd7d71e54f068806ddf313e5262, type: 3}
      propertyPath: m_RootOrder
      value: 8
      objectReference: {fileID: 0}
    - target: {fileID: 6116960192982459333, guid: de1b3cd7d71e54f068806ddf313e5262, type: 3}
      propertyPath: m_LocalPosition.x
      value: 3.5
      objectReference: {fileID: 0}
    - target: {fileID: 6116960192982459333, guid: de1b3cd7d71e54f068806ddf313e5262, type: 3}
      propertyPath: m_LocalPosition.y
      value: 0
      objectReference: {fileID: 0}
    - target: {fileID: 6116960192982459333, guid: de1b3cd7d71e54f068806ddf313e5262, type: 3}
      propertyPath: m_LocalPosition.z
      value: -4.5
      objectReference: {fileID: 0}
    - target: {fileID: 6116960192982459333, guid: de1b3cd7d71e54f068806ddf313e5262, type: 3}
      propertyPath: m_LocalRotation.w
      value: 1
      objectReference: {fileID: 0}
    - target: {fileID: 6116960192982459333, guid: de1b3cd7d71e54f068806ddf313e5262, type: 3}
      propertyPath: m_LocalRotation.x
      value: -0
      objectReference: {fileID: 0}
    - target: {fileID: 6116960192982459333, guid: de1b3cd7d71e54f068806ddf313e5262, type: 3}
      propertyPath: m_LocalRotation.y
      value: -0
      objectReference: {fileID: 0}
    - target: {fileID: 6116960192982459333, guid: de1b3cd7d71e54f068806ddf313e5262, type: 3}
      propertyPath: m_LocalRotation.z
      value: -0
      objectReference: {fileID: 0}
    - target: {fileID: 6116960192982459333, guid: de1b3cd7d71e54f068806ddf313e5262, type: 3}
      propertyPath: m_LocalEulerAnglesHint.x
      value: 0
      objectReference: {fileID: 0}
    - target: {fileID: 6116960192982459333, guid: de1b3cd7d71e54f068806ddf313e5262, type: 3}
      propertyPath: m_LocalEulerAnglesHint.y
      value: 0
      objectReference: {fileID: 0}
    - target: {fileID: 6116960192982459333, guid: de1b3cd7d71e54f068806ddf313e5262, type: 3}
      propertyPath: m_LocalEulerAnglesHint.z
      value: 0
      objectReference: {fileID: 0}
    - target: {fileID: 6116960192982459334, guid: de1b3cd7d71e54f068806ddf313e5262, type: 3}
      propertyPath: m_Name
      value: Tile (8)
      objectReference: {fileID: 0}
    m_RemovedComponents: []
  m_SourcePrefab: {fileID: 100100000, guid: de1b3cd7d71e54f068806ddf313e5262, type: 3}
--- !u!1001 &2037018406
PrefabInstance:
  m_ObjectHideFlags: 0
  serializedVersion: 2
  m_Modification:
    m_TransformParent: {fileID: 412614268}
    m_Modifications:
    - target: {fileID: 6116960192982459333, guid: de1b3cd7d71e54f068806ddf313e5262, type: 3}
      propertyPath: m_RootOrder
      value: 6
      objectReference: {fileID: 0}
    - target: {fileID: 6116960192982459333, guid: de1b3cd7d71e54f068806ddf313e5262, type: 3}
      propertyPath: m_LocalPosition.x
      value: 1.5
      objectReference: {fileID: 0}
    - target: {fileID: 6116960192982459333, guid: de1b3cd7d71e54f068806ddf313e5262, type: 3}
      propertyPath: m_LocalPosition.y
      value: 0
      objectReference: {fileID: 0}
    - target: {fileID: 6116960192982459333, guid: de1b3cd7d71e54f068806ddf313e5262, type: 3}
      propertyPath: m_LocalPosition.z
      value: -4.5
      objectReference: {fileID: 0}
    - target: {fileID: 6116960192982459333, guid: de1b3cd7d71e54f068806ddf313e5262, type: 3}
      propertyPath: m_LocalRotation.w
      value: 1
      objectReference: {fileID: 0}
    - target: {fileID: 6116960192982459333, guid: de1b3cd7d71e54f068806ddf313e5262, type: 3}
      propertyPath: m_LocalRotation.x
      value: -0
      objectReference: {fileID: 0}
    - target: {fileID: 6116960192982459333, guid: de1b3cd7d71e54f068806ddf313e5262, type: 3}
      propertyPath: m_LocalRotation.y
      value: -0
      objectReference: {fileID: 0}
    - target: {fileID: 6116960192982459333, guid: de1b3cd7d71e54f068806ddf313e5262, type: 3}
      propertyPath: m_LocalRotation.z
      value: -0
      objectReference: {fileID: 0}
    - target: {fileID: 6116960192982459333, guid: de1b3cd7d71e54f068806ddf313e5262, type: 3}
      propertyPath: m_LocalEulerAnglesHint.x
      value: 0
      objectReference: {fileID: 0}
    - target: {fileID: 6116960192982459333, guid: de1b3cd7d71e54f068806ddf313e5262, type: 3}
      propertyPath: m_LocalEulerAnglesHint.y
      value: 0
      objectReference: {fileID: 0}
    - target: {fileID: 6116960192982459333, guid: de1b3cd7d71e54f068806ddf313e5262, type: 3}
      propertyPath: m_LocalEulerAnglesHint.z
      value: 0
      objectReference: {fileID: 0}
    - target: {fileID: 6116960192982459334, guid: de1b3cd7d71e54f068806ddf313e5262, type: 3}
      propertyPath: m_Name
      value: Tile (6)
      objectReference: {fileID: 0}
    m_RemovedComponents: []
  m_SourcePrefab: {fileID: 100100000, guid: de1b3cd7d71e54f068806ddf313e5262, type: 3}
--- !u!4 &2106447926 stripped
Transform:
  m_CorrespondingSourceObject: {fileID: 6116960192982459333, guid: de1b3cd7d71e54f068806ddf313e5262, type: 3}
  m_PrefabInstance: {fileID: 6116960191413058547}
  m_PrefabAsset: {fileID: 0}
--- !u!1001 &6116960191413058547
PrefabInstance:
  m_ObjectHideFlags: 0
  serializedVersion: 2
  m_Modification:
    m_TransformParent: {fileID: 412614268}
    m_Modifications:
    - target: {fileID: 6116960192982459333, guid: de1b3cd7d71e54f068806ddf313e5262, type: 3}
      propertyPath: m_RootOrder
      value: 0
      objectReference: {fileID: 0}
    - target: {fileID: 6116960192982459333, guid: de1b3cd7d71e54f068806ddf313e5262, type: 3}
      propertyPath: m_LocalPosition.x
      value: -4.5
      objectReference: {fileID: 0}
    - target: {fileID: 6116960192982459333, guid: de1b3cd7d71e54f068806ddf313e5262, type: 3}
      propertyPath: m_LocalPosition.y
      value: 0
      objectReference: {fileID: 0}
    - target: {fileID: 6116960192982459333, guid: de1b3cd7d71e54f068806ddf313e5262, type: 3}
      propertyPath: m_LocalPosition.z
      value: -4.5
      objectReference: {fileID: 0}
    - target: {fileID: 6116960192982459333, guid: de1b3cd7d71e54f068806ddf313e5262, type: 3}
      propertyPath: m_LocalRotation.w
      value: 1
      objectReference: {fileID: 0}
    - target: {fileID: 6116960192982459333, guid: de1b3cd7d71e54f068806ddf313e5262, type: 3}
      propertyPath: m_LocalRotation.x
      value: -0
      objectReference: {fileID: 0}
    - target: {fileID: 6116960192982459333, guid: de1b3cd7d71e54f068806ddf313e5262, type: 3}
      propertyPath: m_LocalRotation.y
      value: -0
      objectReference: {fileID: 0}
    - target: {fileID: 6116960192982459333, guid: de1b3cd7d71e54f068806ddf313e5262, type: 3}
      propertyPath: m_LocalRotation.z
      value: -0
      objectReference: {fileID: 0}
    - target: {fileID: 6116960192982459333, guid: de1b3cd7d71e54f068806ddf313e5262, type: 3}
      propertyPath: m_LocalEulerAnglesHint.x
      value: 0
      objectReference: {fileID: 0}
    - target: {fileID: 6116960192982459333, guid: de1b3cd7d71e54f068806ddf313e5262, type: 3}
      propertyPath: m_LocalEulerAnglesHint.y
      value: 0
      objectReference: {fileID: 0}
    - target: {fileID: 6116960192982459333, guid: de1b3cd7d71e54f068806ddf313e5262, type: 3}
      propertyPath: m_LocalEulerAnglesHint.z
      value: 0
      objectReference: {fileID: 0}
    - target: {fileID: 6116960192982459334, guid: de1b3cd7d71e54f068806ddf313e5262, type: 3}
      propertyPath: m_Name
      value: Tile
      objectReference: {fileID: 0}
    m_RemovedComponents: []
  m_SourcePrefab: {fileID: 100100000, guid: de1b3cd7d71e54f068806ddf313e5262, type: 3}
